{
  "cli": {
    "version": ">= 0.43.0"
  },
  "build": {
    "development": {
      "developmentClient": true,
      "distribution": "internal"
    },
    "preview": {
      "distribution": "internal"
    },
    "apk": {
      "android": {
        "buildType": "apk"
      }
    },
    "production": {}
  },
  "submit": {
    "production": {
        "android": {
            "serviceAccountKeyPath": "./assets/google-services.json",
            "track": "production"
        }
    }
  }
}
